{
  "file_generated_by": "FlutterFire CLI",
  "purpose": "FirebaseAppID & ProjectID for this Firebase app in this directory",
  "GOOGLE_APP_ID": "1:564894054553:ios:175bfd5fe4ef2a0de62008",
  "FIREBASE_PROJECT_ID": "moviles2023-c0911",
  "GCM_SENDER_ID": "564894054553"
}